{
    "_id": "course",
    "_type": "course",
    "title": "Fomentar la inspiración y el descubrimiento de productos con el formato de anuncio de colección",
    "displayTitle": "Fomentar la inspiración y el descubrimiento de productos con el formato de anuncio de colección",
    "body": "",
    "_buttons": {
        "_submit": {
            "buttonText": "Enviar",
            "ariaLabel": "Haz clic aquí para enviar tu respuesta."
        },
        "_reset": {
            "buttonText": "Restablecer",
            "ariaLabel": "Haz clic aquí para restablecer la pregunta."
        },
        "_showCorrectAnswer": {
            "buttonText": "Respuesta correcta",
            "ariaLabel": "Haz clic aquí para que se muestre la respuesta correcta."
        },
        "_hideCorrectAnswer": {
            "buttonText": "Mi respuesta",
            "ariaLabel": "Haz clic aquí para que se muestre tu respuesta."
        },
        "_showFeedback": {
            "buttonText": "Mostrar comentarios",
            "ariaLabel": "Haz clic aquí para volver a ver los comentarios de la pregunta."
        },
        "remainingAttemptsText": "intentos restantes",
        "remainingAttemptText": "último intento",
        "disabledAriaLabel": "Este botón se encuentra desactivado."
    },
    "_globals": {
        "_components": {
            "_accordion": {
                "ariaRegion": "Este componente es un acordeón que consta de paneles de contenido plegables que contienen texto. Selecciona los títulos de los elementos para activar y desactivar la visibilidad de estos paneles de contenido.",
                "instruction": ""
            },
            "_blank": {
                "ariaRegion": "",
                "instruction": ""
            },
            "_gmcq": {
                "ariaRegion": "Este componente es una pregunta gráfica con varias opciones. Una vez que selecciones una opción, presiona el botón “Enviar” que aparece debajo.",
                "instruction": ""
            },
            "_graphic": {
                "ariaRegion": "",
                "instruction": ""
            },
            "_hotGraphic": {
                "ariaRegion": "A continuación, verás un componente que te permite seleccionar puntos de acceso en una imagen. Selecciona un punto de acceso para abrir una ventana emergente que incluye una imagen con texto. Selecciona el botón “Cerrar” para cerrar la ventana emergente.",
                "instruction": ""
            },
            "_matching": {
                "ariaRegion": "En esta pregunta tienes que seleccionar la respuesta correspondiente en la lista desplegable que figura a continuación. Una vez que selecciones la respuesta, presiona el botón “Enviar”.",
                "instruction": ""
            },
            "_mcq": {
                "ariaRegion": "Este componente es una pregunta con varias opciones. Una vez que selecciones una opción, presiona el botón “Enviar” que aparece debajo.",
                "instruction": ""
            },
            "_media": {
                "ariaRegion": "Este componente multimedia reproduce un video. Selecciona el botón de reproducción/pausa para verlo o escucharlo. También puedes seleccionar el enlace que aparece debajo para acceder a una transcripción.",
                "instruction": ""
            },
            "_narrative": {
                "ariaRegion": "En este componente se muestra una galería de imágenes con texto. Usa los controles de navegación “Siguiente” y “Atrás” para desplazarte.",
                "instruction": ""
            },
            "_slider": {
                "ariaRegion": "En este componente tienes que responder a la pregunta seleccionando el valor que corresponda. Una vez que selecciones un valor, presiona el botón “Enviar” que aparece debajo.",
                "instruction": ""
            },
            "_text": {
                "ariaRegion": "",
                "instruction": ""
            },
            "_textInput": {
                "ariaRegion": "En este componente tienes que escribir la respuesta en el cuadro de texto. Una vez que respondas, presiona el botón “Enviar” que aparece debajo.",
                "instruction": ""
            }
        },
        "_extensions": {
            "_pageLevelProgress": {
                "pageLevelProgress": "Secciones de la página",
                "pageLevelProgressEnd": "Llegaste al final de la lista de secciones de la página.",
                "pageLevelProgressIndicatorBar": "Barra de progreso. Selecciónala para ver el progreso actual; selecciona un elemento para acceder a él. Completaste ",
                "optionalContent": "Contenido opcional"
            }
        },
        "_menu": {
            "_boxmenu": {
                "ariaRegion": "Menú",
                "menuItem": "Elemento del menú.",
                "menuEnd": "Llegaste al final del menú."
            }
        },
        "_accessibility": {
            "_accessibilityToggleTextOn": "¿Activar la accesibilidad?",
            "_accessibilityToggleTextOff": "¿Desactivar la accesibilidad?",
            "_accessibilityInstructions": {
                "touch": "Instrucciones de uso. Desliza el dedo hacia la izquierda para ir al siguiente elemento. Desliza el dedo hacia la derecha para ir al elemento anterior. Toca dos veces para seleccionar. Desliza dos dedos hacia arriba para ir al comienzo de la página.",
                "notouch": "Instrucciones de uso. Usa “Tab” para ir al siguiente elemento. Usa “Mayús+Tab” para ir al elemento anterior. Usa “Enter” para seleccionar. Usa “Escape” para ir al comienzo de la página.",
                "ipad": "Instrucciones de uso para pantallas táctiles. Desliza el dedo hacia la izquierda para ir al siguiente elemento. Desliza el dedo hacia la derecha para ir al elemento anterior. Toca dos veces para seleccionar. Desliza dos dedos hacia arriba para ir al comienzo de la página. Instrucciones de uso para acceso mediante el teclado. Usa la flecha izquierda para ir al siguiente elemento. Usa la flecha derecha para ir al elemento anterior. Usa las flechas arriba y abajo juntas para seleccionar."
            },
            "_ariaLabels": {
                "navigation": "Barra de navegación del curso",
                "menuLoaded": "Menú cargado.",
                "menu": "Menú",
                "page": "Página",
                "pageLoaded": "Página cargada.",
                "pageEnd": "Llegaste al final de la página.",
                "previous": "Volver",
                "navigationBack": "Desplazarse hacia atrás",
                "navigationDrawer": "Abre los recursos del curso.",
                "close": "Cerrar",
                "closeDrawer": "Cerrar contenedor",
                "closeResources": "Cerrar recursos",
                "resourcesEnd": "Llegaste al final de la lista de recursos.",
                "drawerBack": "Volver al contenedor",
                "drawer": "Inicio del contenedor lateral",
                "closePopup": "Cerrar ventana emergente",
                "next": "Siguiente",
                "done": "Listo",
                "complete": "Completado",
                "incomplete": "Incompleto",
                "incorrect": "Incorrecto",
                "correct": "Correcto",
                "locked": "Bloqueado",
                "accessibilityToggleButton": "Al seleccionar este botón, puedes definir si se activa o desactiva la accesibilidad",
                "feedbackPopUp": "Ventana emergente abierta.",
                "menuBack": "Volver al menú",
                "visited": "Visitado"
            }
        }
    },
    "_latestTrackingId": 37,
    "_pageLevelProgress": {
        "_isEnabled": true,
        "_altText": "de componentes completados en esta página."
    },
    "_bookmarking": {
        "_isEnabled": true,
        "_level": "component",
        "title": "Marcadores",
        "body": "¿Quieres continuar donde lo dejaste?",
        "_buttons": {
            "yes": "Sí",
            "no": "No"
        }
    },
    "_analytics": {
        "_isEnabled": true
    }
}